…
### Display dataset basic information

The original dataset imported for analysis consists of 902,297 observations and 37 variables.


``` r
raw_data <- as_tibble(raw_data)
raw_data
```

```
## # A tibble: 902,297 × 37
##    STATE__ BGN_DATE  BGN_TIME TIME_ZONE COUNTY COUNTYNAME STATE EVTYPE BGN_RANGE
##      <dbl> <chr>     <chr>    <chr>      <dbl> <chr>      <chr> <chr>      <dbl>
##  1       1 4/18/195… 0130     CST           97 MOBILE     AL    TORNA…         0
##  2       1 4/18/195… 0145     CST            3 BALDWIN    AL    TORNA…         0
##  3       1 2/20/195… 1600     CST           57 FAYETTE    AL    TORNA…         0
##  4       1 6/8/1951… 0900     CST           89 MADISON    AL    TORNA…         0
##  5       1 11/15/19… 1500     CST           43 CULLMAN    AL    TORNA…         0
##  6       1 11/15/19… 2000     CST           77 LAUDERDALE AL    TORNA…         0
##  7       1 11/16/19… 0100     CST            9 BLOUNT     AL    TORNA…         0
##  8       1 1/22/195… 0900     CST          123 TALLAPOOSA AL    TORNA…         0
##  9       1 2/13/195… 2000     CST          125 TUSCALOOSA AL    TORNA…         0
## 10       1 2/13/195… 2000     CST           57 FAYETTE    AL    TORNA…         0
## # ℹ 902,287 more rows
## # ℹ 28 more variables: BGN_AZI <chr>, BGN_LOCATI <chr>, END_DATE <chr>,
## #   END_TIME <chr>, COUNTY_END <dbl>, COUNTYENDN <lgl>, END_RANGE <dbl>,
## #   END_AZI <chr>, END_LOCATI <chr>, LENGTH <dbl>, WIDTH <dbl>, F <int>,
## #   MAG <dbl>, FATALITIES <dbl>, INJURIES <dbl>, PROPDMG <dbl>,
## #   PROPDMGEXP <chr>, CROPDMG <dbl>, CROPDMGEXP <chr>, WFO <chr>,
## #   STATEOFFIC <chr>, ZONENAMES <chr>, LATITUDE <dbl>, LONGITUDE <dbl>, …
```
…
